Get started • pr2database
…
Selecting sequences from a specific taxon

Let us select all the available sequences for the Mamiellophyceae Ostreococcus

  # Filter only the sequences for which the column genus contains Ostreococcus
  pr2_ostreo <- pr2 %>% dplyr::filter(genus == "Ostreococcus")

  # Select only the columns of interest
  pr2_ostreo <- pr2_ostreo %>% dplyr::select( genbank_accession, species,
                                              pr2_sample_type, gb_strain, gb_clone,
                                              pr2_latitude, pr2_longitude,
                                              sequence_length, sequence  )

  pr2_ostreo
#> # A tibble: 325 x 9
#>    genbank_accessi~ species pr2_sample_type gb_strain gb_clone pr2_latitude
#>    <chr>            <chr>   <chr>           <chr>     <chr>           <dbl>
#>  1 AF525872         Ostreo~ environmental   <NA>      UEPACIp5         NA  
#>  2 EU562149         Ostreo~ environmental   <NA>      IND2.6           NA  
#>  3 AY425309         Ostreo~ environmental   <NA>      RA01041~         NA  
#>  4 GQ426346         Ostreo~ culture         CB6       <NA>             NA  
#>  5 KC583118         Ostreo~ environmental   <NA>      RS.12f.~         NA  
#>  6 JN862906         Ostreo~ culture         BCC48000  <NA>             NA  
#>  7 JQ692065         Ostreo~ environmental   <NA>      PUPF_60         -43.3
#>  8 FR874749         Ostreo~ environmental   <NA>      1815F12          60.3
#>  9 FJ431431         Ostreo~ environmental   <NA>      RA07100~         NA  
#> 10 EU561670         Ostreo~ environmental   <NA>      IND1.11         -35.0
#> # ... with 315 more rows, and 3 more variables: pr2_longitude <dbl>,
#> #   sequence_length <int>, sequence <chr>
…
